%YAML 1.1
%TAG !u! tag:unity3d.com,2011:
--- !u!1045 &1
EditorBuildSettings:
  m_ObjectHideFlags: 0
  serializedVersion: 2
  m_Scenes:
  - enabled: 0
    path: Assets/Scenes/SampleScene.unity
    guid: 2cda990e2423bbf4892e6590ba056729
  - enabled: 1
    path: Assets/Scenes/MainMenu.unity
    guid: 8d53ea620551f2e4c9e5815f34c701da
  - enabled: 1
    path: Assets/Scenes/GamePlay.unity
    guid: 352aca4ff26f4a240b5eff4aa142a69f
  - enabled: 1
    path: Assets/Scenes/GameOver.unity
    guid: f1e69ffa800260642828eb7a139bfdf0
  m_configObjects: {}
